{"callback": null, "meta": {
    "messages": [],
    "pagination": {
        "count": 20,
        "currentUrl": "http://localhost:8080/Syndication/api/v2/resources/campaigns.json?offset=0&max=20&sort=id&order=ASC&format=json",
        "max": 20,
        "nextUrl": "http://localhost:8080/Syndication/api/v2/resources/campaigns.json?offset=20&max=20&sort=id&order=ASC&format=json",
        "offset": 0,
        "order": "ASC",
        "pageNum": 1,
        "previousUrl": "http://localhost:8080/Syndication/api/v2/resources/campaigns.json?offset=0&max=20&sort=id&order=ASC&format=json",
        "sort": "id",
        "total": 29,
        "totalPages": 2
    },
    "status": 200
}, "results": [
    {
        "id": 1,
        "name": "Achondroplasia",
        "description": "Achondroplasia",
        "contactEmail": null,
        "startDate": "2014-04-17T11:00:44Z",
        "endDate": "2014-05-01T11:00:44Z",
        "source": null
    },
    {
        "id": 2,
        "name": "Acne",
        "description": "Acne",
        "contactEmail": null,
        "startDate": "2014-04-17T11:00:44Z",
        "endDate": "2014-04-21T11:00:44Z",
        "source": null
    },
    {
        "id": 3,
        "name": "AIDS",
        "description": "AIDS",
        "contactEmail": null,
        "startDate": "2014-04-17T11:00:44Z",
        "endDate": "2014-04-21T11:00:44Z",
        "source": null
    },
    {
        "id": 4,
        "name": "Albinism",
        "description": "Albinism",
        "contactEmail": null,
        "startDate": "2014-04-17T11:00:44Z",
        "endDate": "2014-04-25T11:00:44Z",
        "source": null
    },
    {
        "id": 5,
        "name": "Alcoholic hepatitis",
        "description": "Alcoholic hepatitis",
        "contactEmail": null,
        "startDate": "2014-04-17T11:00:44Z",
        "endDate": "2014-05-06T11:00:44Z",
        "source": null
    },
    {
        "id": 6,
        "name": "Allergy",
        "description": "Allergy",
        "contactEmail": null,
        "startDate": "2014-04-17T11:00:44Z",
        "endDate": "2014-04-24T11:00:44Z",
        "source": null
    },
    {
        "id": 7,
        "name": "Alopecia",
        "description": "Alopecia",
        "contactEmail": null,
        "startDate": "2014-04-17T11:00:44Z",
        "endDate": "2014-04-25T11:00:44Z",
        "source": null
    },
    {
        "id": 8,
        "name": "Alzheimer's disease",
        "description": "Alzheimer's disease",
        "contactEmail": null,
        "startDate": "2014-04-17T11:00:44Z",
        "endDate": "2014-05-06T11:00:44Z",
        "source": null
    },
    {
        "id": 9,
        "name": "Amblyopia",
        "description": "Amblyopia",
        "contactEmail": null,
        "startDate": "2014-04-17T11:00:44Z",
        "endDate": "2014-04-26T11:00:44Z",
        "source": null
    },
    {
        "id": 10,
        "name": "Amebiasis",
        "description": "Amebiasis",
        "contactEmail": null,
        "startDate": "2014-04-17T11:00:44Z",
        "endDate": "2014-04-26T11:00:44Z",
        "source": null
    },
    {
        "id": 11,
        "name": "Anemia",
        "description": "Anemia",
        "contactEmail": null,
        "startDate": "2014-04-17T11:00:44Z",
        "endDate": "2014-04-23T11:00:44Z",
        "source": null
    },
    {
        "id": 12,
        "name": "Aneurdu",
        "description": "Aneurdu",
        "contactEmail": null,
        "startDate": "2014-04-17T11:00:44Z",
        "endDate": "2014-04-24T11:00:44Z",
        "source": null
    },
    {
        "id": 13,
        "name": "Anorexia",
        "description": "Anorexia",
        "contactEmail": null,
        "startDate": "2014-04-17T11:00:44Z",
        "endDate": "2014-04-25T11:00:44Z",
        "source": null
    },
    {
        "id": 14,
        "name": "Anosmia",
        "description": "Anosmia",
        "contactEmail": null,
        "startDate": "2014-04-17T11:00:44Z",
        "endDate": "2014-04-24T11:00:44Z",
        "source": null
    },
    {
        "id": 15,
        "name": "Anotia",
        "description": "Anotia",
        "contactEmail": null,
        "startDate": "2014-04-17T11:00:44Z",
        "endDate": "2014-04-23T11:00:44Z",
        "source": null
    },
    {
        "id": 16,
        "name": "Anthrax",
        "description": "Anthrax",
        "contactEmail": null,
        "startDate": "2014-04-17T11:00:44Z",
        "endDate": "2014-04-24T11:00:44Z",
        "source": null
    },
    {
        "id": 17,
        "name": "Appendicitis",
        "description": "Appendicitis",
        "contactEmail": null,
        "startDate": "2014-04-17T11:00:44Z",
        "endDate": "2014-04-29T11:00:44Z",
        "source": null
    },
    {
        "id": 18,
        "name": "Apraxia",
        "description": "Apraxia",
        "contactEmail": null,
        "startDate": "2014-04-17T11:00:44Z",
        "endDate": "2014-04-24T11:00:44Z",
        "source": null
    },
    {
        "id": 19,
        "name": "Argyria",
        "description": "Argyria",
        "contactEmail": null,
        "startDate": "2014-04-17T11:00:44Z",
        "endDate": "2014-04-24T11:00:44Z",
        "source": null
    },
    {
        "id": 20,
        "name": "Arthritis",
        "description": "Arthritis",
        "contactEmail": null,
        "startDate": "2014-04-17T11:00:44Z",
        "endDate": "2014-04-26T11:00:44Z",
        "source": null
    }
]}